%!PS-Adobe-3.0 EPSF-3.0
%%Creator: cairo 1.14.1 (http://cairographics.org)
%%CreationDate: Thu Apr 06 20:12:44 2017
%%Pages: 1
%%DocumentData: Clean7Bit
%%LanguageLevel: 2
%%BoundingBox: 1 109 588 697
%%EndComments
%%BeginProlog
save
50 dict begin
/q { gsave } bind def
/Q { grestore } bind def
/cm { 6 array astore concat } bind def
/w { setlinewidth } bind def
/J { setlinecap } bind def
/j { setlinejoin } bind def
/M { setmiterlimit } bind def
/d { setdash } bind def
/m { moveto } bind def
/l { lineto } bind def
/c { curveto } bind def
/h { closepath } bind def
/re { exch dup neg 3 1 roll 5 3 roll moveto 0 rlineto
      0 exch rlineto 0 rlineto closepath } bind def
/S { stroke } bind def
/f { fill } bind def
/f* { eofill } bind def
/n { newpath } bind def
/W { clip } bind def
/W* { eoclip } bind def
/BT { } bind def
/ET { } bind def
/pdfmark where { pop globaldict /?pdfmark /exec load put }
    { globaldict begin /?pdfmark /pop load def /pdfmark
    /cleartomark load def end } ifelse
/BDC { mark 3 1 roll /BDC pdfmark } bind def
/EMC { mark /EMC pdfmark } bind def
/cairo_store_point { /cairo_point_y exch def /cairo_point_x exch def } def
/Tj { show currentpoint cairo_store_point } bind def
/TJ {
  {
    dup
    type /stringtype eq
    { show } { -0.001 mul 0 cairo_font_matrix dtransform rmoveto } ifelse
  } forall
  currentpoint cairo_store_point
} bind def
/cairo_selectfont { cairo_font_matrix aload pop pop pop 0 0 6 array astore
    cairo_font exch selectfont cairo_point_x cairo_point_y moveto } bind def
/Tf { pop /cairo_font exch def /cairo_font_matrix where
      { pop cairo_selectfont } if } bind def
/Td { matrix translate cairo_font_matrix matrix concatmatrix dup
      /cairo_font_matrix exch def dup 4 get exch 5 get cairo_store_point
      /cairo_font where { pop cairo_selectfont } if } bind def
/Tm { 2 copy 8 2 roll 6 array astore /cairo_font_matrix exch def
      cairo_store_point /cairo_font where { pop cairo_selectfont } if } bind def
/g { setgray } bind def
/rg { setrgbcolor } bind def
/d1 { setcachedevice } bind def
%%EndProlog
%%BeginSetup
%%EndSetup
%%Page: 1 1
%%BeginPageSetup
%%PageBoundingBox: 1 109 588 697
%%EndPageSetup
q 1 109 587 588 rectclip q
1 g
19.276915 w
0 J
0 j
[] 0.0 d
4 M q 1 0 0 -1 0 841.889771 cm
578.285 438.461 m 578.285 594.996 451.391 721.891 294.855 721.891 c 138.324
 721.891 11.43 594.996 11.43 438.461 c 11.43 281.93 138.324 155.031 294.855
 155.031 c 451.391 155.031 578.285 281.93 578.285 438.461 c h
578.285 438.461 m S Q
6.425639 w
q 1 0 0 -1 0 841.889771 cm
300.57 155.031 m 331.43 226.461 l 310.855 327.605 l 294.855 316.746 l 254.285
 350.461 l 271.43 412.746 l 325.715 425.316 l 368 457.891 l 345.145 505.891
 l 326.285 571.031 l 269.715 635.605 l 249.715 536.746 l 208.57 505.891 
l 212 471.031 l 242.285 429.891 l 128.57 435.031 l 71.43 375.605 l 96.57
 236.746 l S Q
q 1 0 0 -1 0 841.889771 cm
461.715 207.605 m 437.715 264.176 l 395.43 328.176 l 416.57 373.891 l 490.855
 396.746 l 490.855 396.746 517.145 461.316 517.145 459.031 c 517.145 456.746
 566.855 513.316 566.855 513.316 c S Q
Q Q
showpage
%%Trailer
end restore
%%EOF
