%!PS-Adobe-3.0 EPSF-3.0
%%Creator: cairo 1.14.1 (http://cairographics.org)
%%CreationDate: Thu Apr 06 19:57:23 2017
%%Pages: 1
%%DocumentData: Clean7Bit
%%LanguageLevel: 2
%%BoundingBox: 24 66 572 716
%%EndComments
%%BeginProlog
save
50 dict begin
/q { gsave } bind def
/Q { grestore } bind def
/cm { 6 array astore concat } bind def
/w { setlinewidth } bind def
/J { setlinecap } bind def
/j { setlinejoin } bind def
/M { setmiterlimit } bind def
/d { setdash } bind def
/m { moveto } bind def
/l { lineto } bind def
/c { curveto } bind def
/h { closepath } bind def
/re { exch dup neg 3 1 roll 5 3 roll moveto 0 rlineto
      0 exch rlineto 0 rlineto closepath } bind def
/S { stroke } bind def
/f { fill } bind def
/f* { eofill } bind def
/n { newpath } bind def
/W { clip } bind def
/W* { eoclip } bind def
/BT { } bind def
/ET { } bind def
/pdfmark where { pop globaldict /?pdfmark /exec load put }
    { globaldict begin /?pdfmark /pop load def /pdfmark
    /cleartomark load def end } ifelse
/BDC { mark 3 1 roll /BDC pdfmark } bind def
/EMC { mark /EMC pdfmark } bind def
/cairo_store_point { /cairo_point_y exch def /cairo_point_x exch def } def
/Tj { show currentpoint cairo_store_point } bind def
/TJ {
  {
    dup
    type /stringtype eq
    { show } { -0.001 mul 0 cairo_font_matrix dtransform rmoveto } ifelse
  } forall
  currentpoint cairo_store_point
} bind def
/cairo_selectfont { cairo_font_matrix aload pop pop pop 0 0 6 array astore
    cairo_font exch selectfont cairo_point_x cairo_point_y moveto } bind def
/Tf { pop /cairo_font exch def /cairo_font_matrix where
      { pop cairo_selectfont } if } bind def
/Td { matrix translate cairo_font_matrix matrix concatmatrix dup
      /cairo_font_matrix exch def dup 4 get exch 5 get cairo_store_point
      /cairo_font where { pop cairo_selectfont } if } bind def
/Tm { 2 copy 8 2 roll 6 array astore /cairo_font_matrix exch def
      cairo_store_point /cairo_font where { pop cairo_selectfont } if } bind def
/g { setgray } bind def
/rg { setrgbcolor } bind def
/d1 { setcachedevice } bind def
%%EndProlog
%%BeginSetup
%%EndSetup
%%Page: 1 1
%%BeginPageSetup
%%PageBoundingBox: 24 66 572 716
%%EndPageSetup
q 24 66 548 650 rectclip q
1 g
23.883363 w
0 J
0 j
[] 0.0 d
4 M q 1 0 0 -1 0 841.889771 cm
296.453 156.063 m 167.199 451.023 l 40.531 564.73 l 182.711 744.855 l 203.391
 588.371 l 392.102 588.371 l 408.902 742.043 l 554.961 563.602 l 425.707
 448.77 l h
296.453 156.063 m S Q
q 1 0 0 -1 0 841.889771 cm
295.965 158.598 m 296.406 493.738 l 296.422 587.676 l S Q
0 g
q 1 0 0 -1 0 841.889771 cm
296.879 494.535 m 168.012 451.547 l S Q
q 1 0 0 -1 0 841.889771 cm
424.832 449.559 m 296.879 494.336 l S Q
1 1 0 rg
q 1 0 0 -1 0 841.889771 cm
413.793 420.961 m 296.879 461.797 l S Q
q 1 0 0 -1 0 841.889771 cm
296.879 461.898 m 179.113 422.613 l S Q
0 1 0 rg
q 1 0 0 -1 0 841.889771 cm
296.422 409.953 m 199.73 378.004 l S Q
q 1 0 0 -1 0 841.889771 cm
393.496 375.883 m 296.422 409.855 l S Q
1 0 0 rg
q 1 0 0 -1 0 841.889771 cm
368.852 318.832 m 296.422 344.18 l S Q
q 1 0 0 -1 0 841.889771 cm
296.879 344.477 m 223.762 320.199 l S Q
Q Q
showpage
%%Trailer
end restore
%%EOF
